<?xml version="1.0" encoding="UTF-8"?>
<session version="1.0">
<refactoring comment="Delete resource &apos;pabike&apos;" deleteContents="false" description="Delete resource &apos;pabike&apos;" element1="/pabike" flags="7" id="org.eclipse.ltk.core.refactoring.delete.resources" resources="1" stamp="1530574586834"/>
</session>